%YAML 1.1
%TAG !u! tag:unity3d.com,2011:
--- !u!114 &11400000
MonoBehaviour:
  m_ObjectHideFlags: 0
  m_CorrespondingSourceObject: {fileID: 0}
  m_PrefabInstance: {fileID: 0}
  m_PrefabAsset: {fileID: 0}
  m_GameObject: {fileID: 0}
  m_Enabled: 1
  m_EditorHideFlags: 0
  m_Script: {fileID: 11500000, guid: 799c386d51cce53418cf66c6beba9b67, type: 3}
  m_Name: Game Tile Content Factory
  m_EditorClassIdentifier: 
  destinationPrefab: {fileID: 5472421365872058601, guid: 0911cbf5afd85a24aa0f28552c861bcd, type: 3}
  emptyPrefab: {fileID: 7402991828788275965, guid: 50637f02c8e3126439c057a2319433b9, type: 3}
